strict digraph G {
  1 [ label="root" style="filled" fillcolor="#EEEEEE" color="#31CEF0" ];
  2 [ label="org.jgrapht" style="filled" fillcolor="#EEEEEE" color="#31CEF0" ];
  3 [ label="org.jgrapht.core" style="filled" fillcolor="#EEEEEE" color="#31CEF0" ];
  4 [ label="org.jheaps" style="filled" fillcolor="#EEEEEE" color="#31CEF0" ];
  5 [ label="org.apfloat" style="filled" fillcolor="#EEEEEE" color="#31CEF0" ];
  6 [ label="org.jgrapht.ext" style="filled" fillcolor="#EEEEEE" color="#31CEF0" ];
  7 [ label="com.github.vlsi.mxgraph" style="filled" fillcolor="#EEEEEE" color="#31CEF0" ];
  8 [ label="com.github.vlsi.mxgraph.jgraphx" style="filled" fillcolor="#EEEEEE" color="#31CEF0" ];
  9 [ label="org.jgrapht.io" style="filled" fillcolor="#EEEEEE" color="#31CEF0" ];
  10 [ label="org.antlr" style="filled" fillcolor="#EEEEEE" color="#31CEF0" ];
  11 [ label="org.antlr.antlr4.runtime" style="filled" fillcolor="#EEEEEE" color="#31CEF0" ];
  12 [ label="org.apache.commons" style="filled" fillcolor="#EEEEEE" color="#31CEF0" ];
  13 [ label="org.apache.commons.text" style="filled" fillcolor="#EEEEEE" color="#31CEF0" ];
  14 [ label="org.apache.commons.lang3" style="filled" fillcolor="#EEEEEE" color="#31CEF0" ];
  15 [ label="org.apache.maven" style="filled" fillcolor="#EEEEEE" color="#31CEF0" ];
  16 [ label="maven.embedder" style="filled" fillcolor="#EEEEEE" color="#31CEF0" ];
  17 [ label="maven.settings" style="filled" fillcolor="#EEEEEE" color="#31CEF0" ];
  18 [ label="maven.api.settings" style="filled" fillcolor="#EEEEEE" color="#31CEF0" ];
  19 [ label="maven.api.xml" style="filled" fillcolor="#EEEEEE" color="#31CEF0" ];
  20 [ label="maven.xml.impl" style="filled" fillcolor="#EEEEEE" color="#31CEF0" ];
  21 [ label="org.codehaus.plexus" style="filled" fillcolor="#EEEEEE" color="#31CEF0" ];
  22 [ label="plexus.xml" style="filled" fillcolor="#EEEEEE" color="#31CEF0" ];
  23 [ label="maven.settings.builder" style="filled" fillcolor="#EEEEEE" color="#31CEF0" ];
  24 [ label="plexus.utils" style="filled" fillcolor="#EEEEEE" color="#31CEF0" ];
  25 [ label="maven.toolchain.builder" style="filled" fillcolor="#EEEEEE" color="#31CEF0" ];
  26 [ label="maven.toolchain.model" style="filled" fillcolor="#EEEEEE" color="#31CEF0" ];
  27 [ label="maven.api.toolchain" style="filled" fillcolor="#EEEEEE" color="#31CEF0" ];
  28 [ label="maven.core" style="filled" fillcolor="#EEEEEE" color="#31CEF0" ];
  29 [ label="maven.repository.metadata" style="filled" fillcolor="#EEEEEE" color="#31CEF0" ];
  30 [ label="maven.artifact" style="filled" fillcolor="#EEEEEE" color="#31CEF0" ];
  31 [ label="maven.model.transform" style="filled" fillcolor="#EEEEEE" color="#31CEF0" ];
  32 [ label="maven.resolver.provider" style="filled" fillcolor="#EEEEEE" color="#31CEF0" ];
  33 [ label="maven.api.core" style="filled" fillcolor="#EEEEEE" color="#31CEF0" ];
  34 [ label="maven.api.meta" style="filled" fillcolor="#EEEEEE" color="#31CEF0" ];
  35 [ label="org.apache.maven.resolver" style="filled" fillcolor="#EEEEEE" color="#31CEF0" ];
  36 [ label="org.apache.maven.resolver.impl" style="filled" fillcolor="#EEEEEE" color="#31CEF0" ];
  37 [ label="org.apache.maven.resolver.named" style="filled" fillcolor="#EEEEEE" color="#31CEF0" ];
  38 [ label="org.apache.maven.resolver.spi" style="filled" fillcolor="#EEEEEE" color="#31CEF0" ];
  39 [ label="org.eclipse.sisu" style="filled" fillcolor="#EEEEEE" color="#31CEF0" ];
  40 [ label="org.eclipse.sisu.inject" style="filled" fillcolor="#EEEEEE" color="#31CEF0" ];
  41 [ label="maven.plugin.api" style="filled" fillcolor="#EEEEEE" color="#31CEF0" ];
  42 [ label="maven.model" style="filled" fillcolor="#EEEEEE" color="#31CEF0" ];
  43 [ label="maven.api.model" style="filled" fillcolor="#EEEEEE" color="#31CEF0" ];
  44 [ label="maven.model.builder" style="filled" fillcolor="#EEEEEE" color="#31CEF0" ];
  45 [ label="maven.builder.support" style="filled" fillcolor="#EEEEEE" color="#31CEF0" ];
  46 [ label="org.apache.maven.resolver.util" style="filled" fillcolor="#EEEEEE" color="#31CEF0" ];
  47 [ label="maven.slf4j.wrapper" style="filled" fillcolor="#EEEEEE" color="#31CEF0" ];
  48 [ label="com.google.inject" style="filled" fillcolor="#EEEEEE" color="#31CEF0" ];
  49 [ label="com.google.guice" style="filled" fillcolor="#EEEEEE" color="#31CEF0" ];
  50 [ label="aopalliance" style="filled" fillcolor="#EEEEEE" color="#31CEF0" ];
  51 [ label="com.google.guava" style="filled" fillcolor="#EEEEEE" color="#31CEF0" ];
  52 [ label="com.google.common" style="filled" fillcolor="#EEEEEE" color="#31CEF0" ];
  53 [ label="failureaccess" style="filled" fillcolor="#EEEEEE" color="#31CEF0" ];
  54 [ label="javax.inject" style="filled" fillcolor="#EEEEEE" color="#31CEF0" ];
  55 [ label="javax.annotation" style="filled" fillcolor="#EEEEEE" color="#31CEF0" ];
  56 [ label="java.annotation" style="filled" fillcolor="#EEEEEE" color="#31CEF0" ];
  57 [ label="plexus.classworlds" style="filled" fillcolor="#EEEEEE" color="#31CEF0" ];
  58 [ label="org.eclipse.sisu.plexus" style="filled" fillcolor="#EEEEEE" color="#31CEF0" ];
  59 [ label="plexus.component.annotations" style="filled" fillcolor="#EEEEEE" color="#31CEF0" ];
  60 [ label="plexus.sec.dispatcher" style="filled" fillcolor="#EEEEEE" color="#31CEF0" ];
  61 [ label="plexus.cipher" style="filled" fillcolor="#EEEEEE" color="#31CEF0" ];
  62 [ label="plexus.interpolation" style="filled" fillcolor="#EEEEEE" color="#31CEF0" ];
  63 [ label="org.slf4j" style="filled" fillcolor="#EEEEEE" color="#31CEF0" ];
  64 [ label="commons-cli" style="filled" fillcolor="#EEEEEE" color="#31CEF0" ];
  65 [ label="commons.cli" style="filled" fillcolor="#EEEEEE" color="#31CEF0" ];
  66 [ label="org.apache.logging.log4j" style="filled" fillcolor="#EEEEEE" color="#31CEF0" ];
  67 [ label="org.apache.logging.log4j.core" style="filled" fillcolor="#EEEEEE" color="#31CEF0" ];
  68 [ label="org.apache.logging.log4j.plugins" style="filled" fillcolor="#EEEEEE" color="#31CEF0" ];
  69 [ label="javax.activation" style="filled" fillcolor="#EEEEEE" color="#31CEF0" ];
  70 [ label="java.activation" style="filled" fillcolor="#EEEEEE" color="#31CEF0" ];
  71 [ label="javax.xml.bind" style="filled" fillcolor="#EEEEEE" color="#31CEF0" ];
  72 [ label="java.xml.bind" style="filled" fillcolor="#EEEEEE" color="#31CEF0" ];
  73 [ label="com.fasterxml.woodstox" style="filled" fillcolor="#EEEEEE" color="#31CEF0" ];
  74 [ label="com.ctc.wstx" style="filled" fillcolor="#EEEEEE" color="#31CEF0" ];
  75 [ label="org.codehaus.woodstox" style="filled" fillcolor="#EEEEEE" color="#31CEF0" ];
  76 [ label="org.codehaus.stax2" style="filled" fillcolor="#EEEEEE" color="#31CEF0" ];
  77 [ label="org.slf4j.simple" style="filled" fillcolor="#EEEEEE" color="#31CEF0" ];
  78 [ label="info.picocli" style="filled" fillcolor="#EEEEEE" color="#31CEF0" ];
  79 [ label="org.junit.jupiter" style="filled" fillcolor="#EEEEEE" color="#31CEF0" ];
  80 [ label="org.junit.jupiter.engine" style="filled" fillcolor="#EEEEEE" color="#31CEF0" ];
  81 [ label="org.junit.platform" style="filled" fillcolor="#EEEEEE" color="#31CEF0" ];
  82 [ label="org.junit.platform.engine" style="filled" fillcolor="#EEEEEE" color="#31CEF0" ];
  83 [ label="org.apiguardian" style="filled" fillcolor="#EEEEEE" color="#31CEF0" ];
  84 [ label="org.apiguardian.api" style="filled" fillcolor="#EEEEEE" color="#31CEF0" ];
  85 [ label="org.junit.jupiter.api" style="filled" fillcolor="#EEEEEE" color="#31CEF0" ];
  86 [ label="org.opentest4j" style="filled" fillcolor="#EEEEEE" color="#31CEF0" ];
  87 [ label="org.junit.platform.commons" style="filled" fillcolor="#EEEEEE" color="#31CEF0" ];
  2 -> 3;
  1 -> 2;
  4 -> 4;
  1 -> 4;
  5 -> 5;
  1 -> 5;
  2 -> 6;
  7 -> 8;
  1 -> 7;
  2 -> 9;
  10 -> 11;
  1 -> 10;
  12 -> 13;
  1 -> 12;
  12 -> 14;
  15 -> 16;
  1 -> 15;
  15 -> 17;
  15 -> 18;
  15 -> 19;
  15 -> 20;
  21 -> 22;
  1 -> 21;
  15 -> 23;
  21 -> 24;
  15 -> 25;
  15 -> 26;
  15 -> 27;
  15 -> 28;
  15 -> 29;
  15 -> 30;
  15 -> 31;
  15 -> 32;
  15 -> 33;
  15 -> 34;
  35 -> 36;
  1 -> 35;
  35 -> 37;
  35 -> 38;
  39 -> 40;
  1 -> 39;
  15 -> 41;
  15 -> 42;
  15 -> 43;
  15 -> 44;
  15 -> 45;
  35 -> 35;
  35 -> 46;
  15 -> 47;
  48 -> 49;
  1 -> 48;
  50 -> 50;
  1 -> 50;
  51 -> 52;
  1 -> 51;
  51 -> 53;
  54 -> 54;
  1 -> 54;
  55 -> 56;
  1 -> 55;
  21 -> 57;
  39 -> 58;
  21 -> 59;
  21 -> 60;
  21 -> 61;
  21 -> 62;
  63 -> 63;
  1 -> 63;
  64 -> 65;
  1 -> 64;
  66 -> 67;
  1 -> 66;
  66 -> 68;
  69 -> 70;
  1 -> 69;
  71 -> 72;
  1 -> 71;
  73 -> 74;
  1 -> 73;
  75 -> 76;
  1 -> 75;
  66 -> 66;
  63 -> 77;
  78 -> 78;
  1 -> 78;
  79 -> 80;
  1 -> 79;
  81 -> 82;
  1 -> 81;
  83 -> 84;
  1 -> 83;
  79 -> 85;
  86 -> 86;
  1 -> 86;
  81 -> 87;
}
